EESchema Schematic File Version 2
LIBS:power
LIBS:device
LIBS:transistors
LIBS:conn
LIBS:linear
LIBS:regul
LIBS:74xx
LIBS:cmos4000
LIBS:adc-dac
LIBS:memory
LIBS:xilinx
LIBS:microcontrollers
LIBS:dsp
LIBS:microchip
LIBS:analog_switches
LIBS:motorola
LIBS:texas
LIBS:intel
LIBS:audio
LIBS:interface
LIBS:digital-audio
LIBS:philips
LIBS:display
LIBS:cypress
LIBS:siliconi
LIBS:opto
LIBS:atmel
LIBS:contrib
LIBS:valves
LIBS:crafting_labs
LIBS:gouge-cache
EELAYER 25 0
EELAYER END
$Descr User 8268 5906
encoding utf-8
Sheet 1 1
Title "Gouge - a french word clock"
Date ""
Rev ""
Comp ""
Comment1 ""
Comment2 ""
Comment3 ""
Comment4 ""
$EndDescr
$Comp
L SWITCH_INV SW1
U 1 1 59D40892
P 4900 2650
F 0 "SW1" H 4700 2800 50  0000 C CNN
F 1 "SWITCH_INV" H 4750 2500 50  0000 C CNN
F 2 "Buttons_Switches_ThroughHole:SW_Micro_SPST" H 4900 2650 50  0001 C CNN
F 3 "" H 4900 2650 50  0000 C CNN
	1    4900 2650
	0    1    1    0   
$EndComp
$Comp
L CP C1
U 1 1 59D40B82
P 2450 2900
F 0 "C1" H 2475 3000 50  0000 L CNN
F 1 "CP" H 2475 2800 50  0000 L CNN
F 2 "Discret:C1V8" H 2488 2750 50  0001 C CNN
F 3 "" H 2450 2900 50  0000 C CNN
	1    2450 2900
	0    1    1    0   
$EndComp
$Comp
L USB_OTG P1
U 1 1 59D40EB5
P 3350 3650
F 0 "P1" H 3675 3525 50  0000 C CNN
F 1 "USB_OTG" H 3350 3850 50  0000 C CNN
F 2 "Pin_Headers:Pin_Header_Straight_1x05" V 3300 3550 50  0001 C CNN
F 3 "" V 3300 3550 50  0000 C CNN
	1    3350 3650
	-1   0    0    1   
$EndComp
$Comp
L CONN_01X03 P2
U 1 1 59D40FCE
P 3950 950
F 0 "P2" H 3950 1150 50  0000 C CNN
F 1 "CONN_01X03" V 4050 950 50  0000 C CNN
F 2 "Pin_Headers:Pin_Header_Straight_1x03" H 3950 950 50  0001 C CNN
F 3 "" H 3950 950 50  0000 C CNN
	1    3950 950 
	0    -1   -1   0   
$EndComp
$Comp
L CONN_01X04 P3
U 1 1 59D41135
P 4650 1300
F 0 "P3" H 4650 1550 50  0000 C CNN
F 1 "CONN_01X04" V 4750 1300 50  0000 C CNN
F 2 "Pin_Headers:Pin_Header_Straight_1x04" H 4650 1300 50  0001 C CNN
F 3 "" H 4650 1300 50  0000 C CNN
	1    4650 1300
	0    -1   -1   0   
$EndComp
$Comp
L +5V #PWR01
U 1 1 59D42223
P 3550 3200
F 0 "#PWR01" H 3550 3050 50  0001 C CNN
F 1 "+5V" H 3550 3340 50  0000 C CNN
F 2 "" H 3550 3200 50  0000 C CNN
F 3 "" H 3550 3200 50  0000 C CNN
	1    3550 3200
	1    0    0    -1  
$EndComp
$Comp
L GND #PWR02
U 1 1 59D42245
P 3150 3200
F 0 "#PWR02" H 3150 2950 50  0001 C CNN
F 1 "GND" H 3150 3050 50  0000 C CNN
F 2 "" H 3150 3200 50  0000 C CNN
F 3 "" H 3150 3200 50  0000 C CNN
	1    3150 3200
	-1   0    0    1   
$EndComp
$Comp
L GND #PWR03
U 1 1 59D423A4
P 2150 2900
F 0 "#PWR03" H 2150 2650 50  0001 C CNN
F 1 "GND" H 2150 2750 50  0000 C CNN
F 2 "" H 2150 2900 50  0000 C CNN
F 3 "" H 2150 2900 50  0000 C CNN
	1    2150 2900
	-1   0    0    1   
$EndComp
$Comp
L GND #PWR04
U 1 1 59D42599
P 4800 3350
F 0 "#PWR04" H 4800 3100 50  0001 C CNN
F 1 "GND" H 4800 3200 50  0000 C CNN
F 2 "" H 4800 3350 50  0000 C CNN
F 3 "" H 4800 3350 50  0000 C CNN
	1    4800 3350
	1    0    0    -1  
$EndComp
$Comp
L GND #PWR05
U 1 1 59D42766
P 4300 1500
F 0 "#PWR05" H 4300 1250 50  0001 C CNN
F 1 "GND" H 4300 1350 50  0000 C CNN
F 2 "" H 4300 1500 50  0000 C CNN
F 3 "" H 4300 1500 50  0000 C CNN
	1    4300 1500
	0    1    1    0   
$EndComp
$Comp
L +5V #PWR06
U 1 1 59D42788
P 4950 1500
F 0 "#PWR06" H 4950 1350 50  0001 C CNN
F 1 "+5V" H 4950 1640 50  0000 C CNN
F 2 "" H 4950 1500 50  0000 C CNN
F 3 "" H 4950 1500 50  0000 C CNN
	1    4950 1500
	0    1    1    0   
$EndComp
$Comp
L GND #PWR07
U 1 1 59D42CC1
P 2300 3350
F 0 "#PWR07" H 2300 3100 50  0001 C CNN
F 1 "GND" H 2300 3200 50  0000 C CNN
F 2 "" H 2300 3350 50  0000 C CNN
F 3 "" H 2300 3350 50  0000 C CNN
	1    2300 3350
	-1   0    0    1   
$EndComp
$Comp
L +5V #PWR08
U 1 1 59D42D04
P 2450 3350
F 0 "#PWR08" H 2450 3200 50  0001 C CNN
F 1 "+5V" H 2450 3490 50  0000 C CNN
F 2 "" H 2450 3350 50  0000 C CNN
F 3 "" H 2450 3350 50  0000 C CNN
	1    2450 3350
	1    0    0    -1  
$EndComp
$Comp
L GND #PWR09
U 1 1 59D43254
P 4150 1150
F 0 "#PWR09" H 4150 900 50  0001 C CNN
F 1 "GND" H 4150 1000 50  0000 C CNN
F 2 "" H 4150 1150 50  0000 C CNN
F 3 "" H 4150 1150 50  0000 C CNN
	1    4150 1150
	0    -1   -1   0   
$EndComp
$Comp
L GND #PWR010
U 1 1 59D43388
P 3850 2300
F 0 "#PWR010" H 3850 2050 50  0001 C CNN
F 1 "GND" H 3850 2150 50  0000 C CNN
F 2 "" H 3850 2300 50  0000 C CNN
F 3 "" H 3850 2300 50  0000 C CNN
	1    3850 2300
	0    -1   -1   0   
$EndComp
NoConn ~ 3650 2100
NoConn ~ 3650 2200
NoConn ~ 3450 3350
NoConn ~ 3350 3350
NoConn ~ 3250 3350
NoConn ~ 5000 3150
NoConn ~ 2600 2200
NoConn ~ 2600 2100
NoConn ~ 2600 2000
NoConn ~ 2600 1900
NoConn ~ 2600 1700
NoConn ~ 2600 1600
NoConn ~ 2950 3750
$Comp
L PWR_FLAG #FLG011
U 1 1 59D4427B
P 4100 3050
F 0 "#FLG011" H 4100 3145 50  0001 C CNN
F 1 "PWR_FLAG" H 4100 3230 50  0000 C CNN
F 2 "" H 4100 3050 50  0000 C CNN
F 3 "" H 4100 3050 50  0000 C CNN
	1    4100 3050
	1    0    0    -1  
$EndComp
$Comp
L GND #PWR012
U 1 1 59D4429D
P 4100 3200
F 0 "#PWR012" H 4100 2950 50  0001 C CNN
F 1 "GND" H 4100 3050 50  0000 C CNN
F 2 "" H 4100 3200 50  0000 C CNN
F 3 "" H 4100 3200 50  0000 C CNN
	1    4100 3200
	1    0    0    -1  
$EndComp
$Comp
L ESP12 U2
U 1 1 59D4C5FA
P 3300 3200
F 0 "U2" H 3350 3950 60  0000 C CNN
F 1 "ESP12" H 2950 3950 60  0000 C CNN
F 2 "Crafting labs:ESP12-breakout_board" H 3300 3200 60  0001 C CNN
F 3 "" H 3300 3200 60  0000 C CNN
	1    3300 3200
	1    0    0    -1  
$EndComp
$Comp
L HT7333 U1
U 1 1 59D4E4CD
P 3000 3550
F 0 "U1" H 2450 4400 60  0000 C CNN
F 1 "HT7333" V 2500 4100 60  0000 C CNN
F 2 "TO_SOT_Packages_THT:TO-92_Molded_Wide" H 3000 3550 60  0001 C CNN
F 3 "" H 3000 3550 60  0000 C CNN
	1    3000 3550
	0    -1   -1   0   
$EndComp
Wire Wire Line
	2300 3350 2300 3600
Wire Wire Line
	2450 3600 2450 3350
Wire Wire Line
	4100 3050 4100 3200
Wire Wire Line
	3650 2300 3850 2300
Wire Wire Line
	4800 3150 4800 3350
Wire Wire Line
	3850 1600 3650 1600
Wire Wire Line
	3850 1150 3850 1600
Wire Wire Line
	3950 1700 3650 1700
Wire Wire Line
	3950 1150 3950 1700
Wire Wire Line
	4050 1150 4150 1150
Wire Wire Line
	2400 2300 2600 2300
Wire Wire Line
	2400 1800 2400 2300
Wire Wire Line
	2600 1800 2400 1800
Wire Wire Line
	3650 1900 4700 1900
Wire Wire Line
	4700 1900 4700 1500
Wire Wire Line
	3650 1800 4600 1800
Wire Wire Line
	4600 1800 4600 1500
Wire Wire Line
	4800 1500 4950 1500
Wire Wire Line
	4300 1500 4500 1500
Wire Wire Line
	4900 2000 4900 2150
Wire Wire Line
	3650 2000 4900 2000
Wire Wire Line
	2150 2900 2300 2900
Connection ~ 2600 2900
Wire Wire Line
	2600 2300 2600 3600
Wire Wire Line
	3150 3200 3150 3350
Wire Wire Line
	3550 3200 3550 3350
$EndSCHEMATC
