(kicad_pcb (version 4) (host pcbnew 4.0.2+dfsg1-stable)

  (general
    (links 16)
    (no_connects 0)
    (area 132.029999 83.769999 165.150001 118.160001)
    (thickness 1.6)
    (drawings 6)
    (tracks 41)
    (zones 0)
    (modules 7)
    (nets 21)
  )

  (page A4)
  (title_block
    (title "Gouge: a word clock in french")
    (date 2017-10-04)
  )

  (layers
    (0 F.Cu signal)
    (31 B.Cu signal)
    (32 B.Adhes user)
    (33 F.Adhes user)
    (34 B.Paste user)
    (35 F.Paste user)
    (36 B.SilkS user)
    (37 F.SilkS user)
    (38 B.Mask user)
    (39 F.Mask user)
    (40 Dwgs.User user)
    (41 Cmts.User user)
    (42 Eco1.User user)
    (43 Eco2.User user)
    (44 Edge.Cuts user)
    (45 Margin user)
    (46 B.CrtYd user)
    (47 F.CrtYd user)
    (48 B.Fab user)
    (49 F.Fab user)
  )

  (setup
    (last_trace_width 0.254)
    (trace_clearance 0.1524)
    (zone_clearance 0.508)
    (zone_45_only no)
    (trace_min 0.1524)
    (segment_width 0.2)
    (edge_width 0.1)
    (via_size 0.6858)
    (via_drill 0.3302)
    (via_min_size 0.6858)
    (via_min_drill 0.3302)
    (uvia_size 0.762)
    (uvia_drill 0.508)
    (uvias_allowed no)
    (uvia_min_size 0)
    (uvia_min_drill 0)
    (pcb_text_width 0.3)
    (pcb_text_size 1.5 1.5)
    (mod_edge_width 0.15)
    (mod_text_size 1 1)
    (mod_text_width 0.15)
    (pad_size 1.5 1.5)
    (pad_drill 0.6)
    (pad_to_mask_clearance 0)
    (aux_axis_origin 0 0)
    (visible_elements FFFFFF7F)
    (pcbplotparams
      (layerselection 0x00030_80000001)
      (usegerberextensions false)
      (excludeedgelayer true)
      (linewidth 0.100000)
      (plotframeref false)
      (viasonmask false)
      (mode 1)
      (useauxorigin false)
      (hpglpennumber 1)
      (hpglpenspeed 20)
      (hpglpendiameter 15)
      (hpglpenoverlay 2)
      (psnegative false)
      (psa4output false)
      (plotreference true)
      (plotvalue true)
      (plotinvisibletext false)
      (padsonsilk false)
      (subtractmaskfromsilk false)
      (outputformat 1)
      (mirror false)
      (drillshape 1)
      (scaleselection 1)
      (outputdirectory ""))
  )

  (net 0 "")
  (net 1 "Net-(C1-Pad1)")
  (net 2 GND)
  (net 3 +5V)
  (net 4 "Net-(P1-Pad2)")
  (net 5 "Net-(P1-Pad3)")
  (net 6 "Net-(P1-Pad4)")
  (net 7 "Net-(P2-Pad1)")
  (net 8 "Net-(P2-Pad2)")
  (net 9 "Net-(P3-Pad2)")
  (net 10 "Net-(P3-Pad3)")
  (net 11 "Net-(SW1-Pad1)")
  (net 12 "Net-(SW1-Pad2)")
  (net 13 "Net-(U2-Pad1)")
  (net 14 "Net-(U2-Pad2)")
  (net 15 "Net-(U2-Pad4)")
  (net 16 "Net-(U2-Pad5)")
  (net 17 "Net-(U2-Pad6)")
  (net 18 "Net-(U2-Pad7)")
  (net 19 "Net-(U2-Pad10)")
  (net 20 "Net-(U2-Pad11)")

  (net_class Default "This is the default net class."
    (clearance 0.1524)
    (trace_width 0.254)
    (via_dia 0.6858)
    (via_drill 0.3302)
    (uvia_dia 0.762)
    (uvia_drill 0.508)
    (add_net +5V)
    (add_net GND)
    (add_net "Net-(C1-Pad1)")
    (add_net "Net-(P1-Pad2)")
    (add_net "Net-(P1-Pad3)")
    (add_net "Net-(P1-Pad4)")
    (add_net "Net-(P2-Pad1)")
    (add_net "Net-(P2-Pad2)")
    (add_net "Net-(P3-Pad2)")
    (add_net "Net-(P3-Pad3)")
    (add_net "Net-(SW1-Pad1)")
    (add_net "Net-(SW1-Pad2)")
    (add_net "Net-(U2-Pad1)")
    (add_net "Net-(U2-Pad10)")
    (add_net "Net-(U2-Pad11)")
    (add_net "Net-(U2-Pad2)")
    (add_net "Net-(U2-Pad4)")
    (add_net "Net-(U2-Pad5)")
    (add_net "Net-(U2-Pad6)")
    (add_net "Net-(U2-Pad7)")
  )

  (module "Crafting labs:ESP12-breakout_board" (layer F.Cu) (tedit 59D51472) (tstamp 59D4ECB4)
    (at 148.59 106.68)
    (path /59D4C5FA)
    (fp_text reference U2 (at -11.43 -2.54) (layer F.SilkS)
      (effects (font (size 1 1) (thickness 0.15)))
    )
    (fp_text value ESP12 (at -10.16 -6.35 90) (layer F.Fab)
      (effects (font (size 1 1) (thickness 0.15)))
    )
    (fp_line (start 12.7 -21.59) (end 15.24 -21.59) (layer F.SilkS) (width 0.15))
    (fp_line (start 15.24 -21.59) (end 15.24 -1.27) (layer F.SilkS) (width 0.15))
    (fp_line (start 15.24 -1.27) (end 12.7 -1.27) (layer F.SilkS) (width 0.15))
    (fp_line (start 12.7 -1.27) (end 12.7 -21.59) (layer F.SilkS) (width 0.15))
    (fp_line (start -15.24 -21.59) (end -12.7 -21.59) (layer F.SilkS) (width 0.15))
    (fp_line (start -12.7 -21.59) (end -12.7 -1.27) (layer F.SilkS) (width 0.15))
    (fp_line (start -12.7 -1.27) (end -15.24 -1.27) (layer F.SilkS) (width 0.15))
    (fp_line (start -15.24 -1.27) (end -15.24 -21.59) (layer F.SilkS) (width 0.15))
    (pad 1 thru_hole circle (at -13.97 -20.32) (size 1.524 1.524) (drill 0.762) (layers *.Cu *.Mask F.SilkS)
      (net 13 "Net-(U2-Pad1)"))
    (pad 2 thru_hole circle (at -13.97 -17.78) (size 1.524 1.524) (drill 0.762) (layers *.Cu *.Mask F.SilkS)
      (net 14 "Net-(U2-Pad2)"))
    (pad 3 thru_hole circle (at -13.97 -15.24) (size 1.524 1.524) (drill 0.762) (layers *.Cu *.Mask F.SilkS)
      (net 1 "Net-(C1-Pad1)"))
    (pad 4 thru_hole circle (at -13.97 -12.7) (size 1.524 1.524) (drill 0.762) (layers *.Cu *.Mask F.SilkS)
      (net 15 "Net-(U2-Pad4)"))
    (pad 5 thru_hole circle (at -13.97 -10.16) (size 1.524 1.524) (drill 0.762) (layers *.Cu *.Mask F.SilkS)
      (net 16 "Net-(U2-Pad5)"))
    (pad 6 thru_hole circle (at -13.97 -7.62) (size 1.524 1.524) (drill 0.762) (layers *.Cu *.Mask F.SilkS)
      (net 17 "Net-(U2-Pad6)"))
    (pad 7 thru_hole circle (at -13.97 -5.08) (size 1.524 1.524) (drill 0.762) (layers *.Cu *.Mask F.SilkS)
      (net 18 "Net-(U2-Pad7)"))
    (pad 8 thru_hole circle (at -13.97 -2.54) (size 1.524 1.524) (drill 0.762) (layers *.Cu *.Mask F.SilkS)
      (net 1 "Net-(C1-Pad1)"))
    (pad 16 thru_hole circle (at 13.97 -20.32) (size 1.524 1.524) (drill 0.762) (layers *.Cu *.Mask F.SilkS)
      (net 7 "Net-(P2-Pad1)"))
    (pad 15 thru_hole circle (at 13.97 -17.78) (size 1.524 1.524) (drill 0.762) (layers *.Cu *.Mask F.SilkS)
      (net 8 "Net-(P2-Pad2)"))
    (pad 14 thru_hole circle (at 13.97 -15.24) (size 1.524 1.524) (drill 0.762) (layers *.Cu *.Mask F.SilkS)
      (net 9 "Net-(P3-Pad2)"))
    (pad 13 thru_hole circle (at 13.97 -12.7) (size 1.524 1.524) (drill 0.762) (layers *.Cu *.Mask F.SilkS)
      (net 10 "Net-(P3-Pad3)"))
    (pad 12 thru_hole circle (at 13.97 -10.16) (size 1.524 1.524) (drill 0.762) (layers *.Cu *.Mask F.SilkS)
      (net 12 "Net-(SW1-Pad2)"))
    (pad 11 thru_hole circle (at 13.97 -7.62) (size 1.524 1.524) (drill 0.762) (layers *.Cu *.Mask F.SilkS)
      (net 20 "Net-(U2-Pad11)"))
    (pad 10 thru_hole circle (at 13.97 -5.08) (size 1.524 1.524) (drill 0.762) (layers *.Cu *.Mask F.SilkS)
      (net 19 "Net-(U2-Pad10)"))
    (pad 9 thru_hole circle (at 13.97 -2.54) (size 1.524 1.524) (drill 0.762) (layers *.Cu *.Mask F.SilkS)
      (net 2 GND))
  )

  (module Discret:C1V8 (layer F.Cu) (tedit 59D5149D) (tstamp 59D4E8CD)
    (at 142.24 95.25)
    (path /59D40B82)
    (fp_text reference C1 (at -1.27 -2.54) (layer F.SilkS)
      (effects (font (size 1 1) (thickness 0.15)))
    )
    (fp_text value CP (at 0 -1.77546) (layer F.Fab)
      (effects (font (size 1 1) (thickness 0.15)))
    )
    (fp_text user + (at -3.04546 0) (layer F.SilkS)
      (effects (font (size 1 1) (thickness 0.15)))
    )
    (fp_circle (center 0 0) (end 4.064 0) (layer F.SilkS) (width 0.15))
    (pad 1 thru_hole rect (at -1.27 0) (size 1.651 1.651) (drill 0.8128) (layers *.Cu *.Mask F.SilkS)
      (net 1 "Net-(C1-Pad1)"))
    (pad 2 thru_hole circle (at 1.27 0) (size 1.651 1.651) (drill 0.8128) (layers *.Cu *.Mask F.SilkS)
      (net 2 GND))
    (model Discret.3dshapes/C1V8.wrl
      (at (xyz 0 0 0))
      (scale (xyz 1 1 1))
      (rotate (xyz 0 0 0))
    )
  )

  (module Pin_Headers:Pin_Header_Straight_1x05 (layer F.Cu) (tedit 59D51485) (tstamp 59D4E8D6)
    (at 149.86 114.3 90)
    (descr "Through hole pin header")
    (tags "pin header")
    (path /59D40EB5)
    (fp_text reference P1 (at 0 12.7 90) (layer F.SilkS)
      (effects (font (size 1 1) (thickness 0.15)))
    )
    (fp_text value USB_OTG (at -2.54 1.27 180) (layer F.Fab)
      (effects (font (size 1 1) (thickness 0.15)))
    )
    (fp_line (start -1.55 0) (end -1.55 -1.55) (layer F.SilkS) (width 0.15))
    (fp_line (start -1.55 -1.55) (end 1.55 -1.55) (layer F.SilkS) (width 0.15))
    (fp_line (start 1.55 -1.55) (end 1.55 0) (layer F.SilkS) (width 0.15))
    (fp_line (start -1.75 -1.75) (end -1.75 11.95) (layer F.CrtYd) (width 0.05))
    (fp_line (start 1.75 -1.75) (end 1.75 11.95) (layer F.CrtYd) (width 0.05))
    (fp_line (start -1.75 -1.75) (end 1.75 -1.75) (layer F.CrtYd) (width 0.05))
    (fp_line (start -1.75 11.95) (end 1.75 11.95) (layer F.CrtYd) (width 0.05))
    (fp_line (start 1.27 1.27) (end 1.27 11.43) (layer F.SilkS) (width 0.15))
    (fp_line (start 1.27 11.43) (end -1.27 11.43) (layer F.SilkS) (width 0.15))
    (fp_line (start -1.27 11.43) (end -1.27 1.27) (layer F.SilkS) (width 0.15))
    (fp_line (start 1.27 1.27) (end -1.27 1.27) (layer F.SilkS) (width 0.15))
    (pad 1 thru_hole rect (at 0 0 90) (size 2.032 1.7272) (drill 1.016) (layers *.Cu *.Mask F.SilkS)
      (net 3 +5V))
    (pad 2 thru_hole oval (at 0 2.54 90) (size 2.032 1.7272) (drill 1.016) (layers *.Cu *.Mask F.SilkS)
      (net 4 "Net-(P1-Pad2)"))
    (pad 3 thru_hole oval (at 0 5.08 90) (size 2.032 1.7272) (drill 1.016) (layers *.Cu *.Mask F.SilkS)
      (net 5 "Net-(P1-Pad3)"))
    (pad 4 thru_hole oval (at 0 7.62 90) (size 2.032 1.7272) (drill 1.016) (layers *.Cu *.Mask F.SilkS)
      (net 6 "Net-(P1-Pad4)"))
    (pad 5 thru_hole oval (at 0 10.16 90) (size 2.032 1.7272) (drill 1.016) (layers *.Cu *.Mask F.SilkS)
      (net 2 GND))
    (model Pin_Headers.3dshapes/Pin_Header_Straight_1x05.wrl
      (at (xyz 0 -0.2 0))
      (scale (xyz 1 1 1))
      (rotate (xyz 0 0 90))
    )
  )

  (module Pin_Headers:Pin_Header_Straight_1x03 (layer F.Cu) (tedit 59D5147A) (tstamp 59D4E8DD)
    (at 137.16 110.49 90)
    (descr "Through hole pin header")
    (tags "pin header")
    (path /59D40FCE)
    (fp_text reference P2 (at 2.54 5.08 180) (layer F.SilkS)
      (effects (font (size 1 1) (thickness 0.15)))
    )
    (fp_text value CONN_01X03 (at 2.54 2.54 180) (layer F.Fab)
      (effects (font (size 1 1) (thickness 0.15)))
    )
    (fp_line (start -1.75 -1.75) (end -1.75 6.85) (layer F.CrtYd) (width 0.05))
    (fp_line (start 1.75 -1.75) (end 1.75 6.85) (layer F.CrtYd) (width 0.05))
    (fp_line (start -1.75 -1.75) (end 1.75 -1.75) (layer F.CrtYd) (width 0.05))
    (fp_line (start -1.75 6.85) (end 1.75 6.85) (layer F.CrtYd) (width 0.05))
    (fp_line (start -1.27 1.27) (end -1.27 6.35) (layer F.SilkS) (width 0.15))
    (fp_line (start -1.27 6.35) (end 1.27 6.35) (layer F.SilkS) (width 0.15))
    (fp_line (start 1.27 6.35) (end 1.27 1.27) (layer F.SilkS) (width 0.15))
    (fp_line (start 1.55 -1.55) (end 1.55 0) (layer F.SilkS) (width 0.15))
    (fp_line (start 1.27 1.27) (end -1.27 1.27) (layer F.SilkS) (width 0.15))
    (fp_line (start -1.55 0) (end -1.55 -1.55) (layer F.SilkS) (width 0.15))
    (fp_line (start -1.55 -1.55) (end 1.55 -1.55) (layer F.SilkS) (width 0.15))
    (pad 1 thru_hole rect (at 0 0 90) (size 2.032 1.7272) (drill 1.016) (layers *.Cu *.Mask F.SilkS)
      (net 7 "Net-(P2-Pad1)"))
    (pad 2 thru_hole oval (at 0 2.54 90) (size 2.032 1.7272) (drill 1.016) (layers *.Cu *.Mask F.SilkS)
      (net 8 "Net-(P2-Pad2)"))
    (pad 3 thru_hole oval (at 0 5.08 90) (size 2.032 1.7272) (drill 1.016) (layers *.Cu *.Mask F.SilkS)
      (net 2 GND))
    (model Pin_Headers.3dshapes/Pin_Header_Straight_1x03.wrl
      (at (xyz 0 -0.1 0))
      (scale (xyz 1 1 1))
      (rotate (xyz 0 0 90))
    )
  )

  (module Pin_Headers:Pin_Header_Straight_1x04 (layer F.Cu) (tedit 59D4F8D0) (tstamp 59D4E8E5)
    (at 156.845 90.17 270)
    (descr "Through hole pin header")
    (tags "pin header")
    (path /59D41135)
    (fp_text reference P3 (at 2.54 7.62 360) (layer F.SilkS)
      (effects (font (size 1 1) (thickness 0.15)))
    )
    (fp_text value LED (at 2.54 3.81 360) (layer F.Fab)
      (effects (font (size 1 1) (thickness 0.15)))
    )
    (fp_line (start -1.75 -1.75) (end -1.75 9.4) (layer F.CrtYd) (width 0.05))
    (fp_line (start 1.75 -1.75) (end 1.75 9.4) (layer F.CrtYd) (width 0.05))
    (fp_line (start -1.75 -1.75) (end 1.75 -1.75) (layer F.CrtYd) (width 0.05))
    (fp_line (start -1.75 9.4) (end 1.75 9.4) (layer F.CrtYd) (width 0.05))
    (fp_line (start -1.27 1.27) (end -1.27 8.89) (layer F.SilkS) (width 0.15))
    (fp_line (start 1.27 1.27) (end 1.27 8.89) (layer F.SilkS) (width 0.15))
    (fp_line (start 1.55 -1.55) (end 1.55 0) (layer F.SilkS) (width 0.15))
    (fp_line (start -1.27 8.89) (end 1.27 8.89) (layer F.SilkS) (width 0.15))
    (fp_line (start 1.27 1.27) (end -1.27 1.27) (layer F.SilkS) (width 0.15))
    (fp_line (start -1.55 0) (end -1.55 -1.55) (layer F.SilkS) (width 0.15))
    (fp_line (start -1.55 -1.55) (end 1.55 -1.55) (layer F.SilkS) (width 0.15))
    (pad 1 thru_hole rect (at 0 0 270) (size 2.032 1.7272) (drill 1.016) (layers *.Cu *.Mask F.SilkS)
      (net 2 GND))
    (pad 2 thru_hole oval (at 0 2.54 270) (size 2.032 1.7272) (drill 1.016) (layers *.Cu *.Mask F.SilkS)
      (net 9 "Net-(P3-Pad2)"))
    (pad 3 thru_hole oval (at 0 5.08 270) (size 2.032 1.7272) (drill 1.016) (layers *.Cu *.Mask F.SilkS)
      (net 10 "Net-(P3-Pad3)"))
    (pad 4 thru_hole oval (at 0 7.62 270) (size 2.032 1.7272) (drill 1.016) (layers *.Cu *.Mask F.SilkS)
      (net 3 +5V))
    (model Pin_Headers.3dshapes/Pin_Header_Straight_1x04.wrl
      (at (xyz 0 -0.15 0))
      (scale (xyz 1 1 1))
      (rotate (xyz 0 0 90))
    )
  )

  (module Buttons_Switches_ThroughHole:SW_Micro_SPST (layer F.Cu) (tedit 59F65DC7) (tstamp 59D4E8EC)
    (at 139.7 114.935 180)
    (tags "Switch Micro SPST")
    (path /59D40892)
    (fp_text reference SW1 (at -5.715 0.635 180) (layer F.SilkS)
      (effects (font (size 1 1) (thickness 0.15)))
    )
    (fp_text value SWITCH_INV (at 0.025 2.45 180) (layer F.Fab)
      (effects (font (size 1 1) (thickness 0.15)))
    )
    (fp_line (start -3.81 1.27) (end -3.81 -1.27) (layer F.SilkS) (width 0.15))
    (fp_line (start -3.81 -1.27) (end 3.81 -1.27) (layer F.SilkS) (width 0.15))
    (fp_line (start 3.81 -1.27) (end 3.81 1.27) (layer F.SilkS) (width 0.15))
    (fp_line (start 3.81 1.27) (end -3.81 1.27) (layer F.SilkS) (width 0.15))
    (fp_line (start -1.27 -1.27) (end -1.27 1.27) (layer F.SilkS) (width 0.15))
    (pad 1 thru_hole rect (at -2.54 0 180) (size 1.397 1.397) (drill 0.8128) (layers *.Cu *.Mask F.SilkS)
      (net 11 "Net-(SW1-Pad1)"))
    (pad 2 thru_hole circle (at 0 0 180) (size 1.397 1.397) (drill 0.8128) (layers *.Cu *.Mask F.SilkS)
      (net 12 "Net-(SW1-Pad2)"))
    (pad 3 thru_hole circle (at 2.54 0 180) (size 1.397 1.397) (drill 0.8128) (layers *.Cu *.Mask F.SilkS)
      (net 2 GND))
    (model Buttons_Switches_ThroughHole.3dshapes/SW_Micro_SPST.wrl
      (at (xyz 0 0 0))
      (scale (xyz 0.33 0.33 0.33))
      (rotate (xyz 0 0 0))
    )
  )

  (module TO_SOT_Packages_THT:TO-92_Inline_Narrow_Oval (layer F.Cu) (tedit 59D51494) (tstamp 59D4E8F3)
    (at 143.51 102.87 180)
    (descr "TO-92 leads in-line, narrow, oval pads, drill 0.6mm (see NXP sot054_po.pdf)")
    (tags "to-92 sc-43 sc-43a sot54 PA33 transistor")
    (path /59D4E4CD)
    (fp_text reference U1 (at 5.08 -1.27 180) (layer F.SilkS)
      (effects (font (size 1 1) (thickness 0.15)))
    )
    (fp_text value HT7333 (at 0 3 180) (layer F.Fab)
      (effects (font (size 1 1) (thickness 0.15)))
    )
    (fp_line (start -1.4 1.95) (end -1.4 -2.65) (layer F.CrtYd) (width 0.05))
    (fp_line (start -1.4 1.95) (end 3.95 1.95) (layer F.CrtYd) (width 0.05))
    (fp_line (start -0.43 1.7) (end 2.97 1.7) (layer F.SilkS) (width 0.15))
    (fp_arc (start 1.27 0) (end 1.27 -2.4) (angle -135) (layer F.SilkS) (width 0.15))
    (fp_arc (start 1.27 0) (end 1.27 -2.4) (angle 135) (layer F.SilkS) (width 0.15))
    (fp_line (start -1.4 -2.65) (end 3.95 -2.65) (layer F.CrtYd) (width 0.05))
    (fp_line (start 3.95 1.95) (end 3.95 -2.65) (layer F.CrtYd) (width 0.05))
    (pad 2 thru_hole oval (at 1.27 0) (size 0.89916 1.50114) (drill 0.6) (layers *.Cu *.Mask F.SilkS)
      (net 3 +5V))
    (pad 3 thru_hole oval (at 2.54 0) (size 0.89916 1.50114) (drill 0.6) (layers *.Cu *.Mask F.SilkS)
      (net 1 "Net-(C1-Pad1)"))
    (pad 1 thru_hole oval (at 0 0) (size 0.89916 1.50114) (drill 0.6) (layers *.Cu *.Mask F.SilkS)
      (net 2 GND))
    (model TO_SOT_Packages_THT.3dshapes/TO-92_Inline_Narrow_Oval.wrl
      (at (xyz 0.05 0 0))
      (scale (xyz 1 1 1))
      (rotate (xyz 0 0 -90))
    )
  )

  (gr_line (start 132.08 118.11) (end 132.08 83.82) (angle 90) (layer Edge.Cuts) (width 0.1))
  (gr_line (start 165.1 118.11) (end 132.08 118.11) (angle 90) (layer Edge.Cuts) (width 0.1))
  (gr_line (start 165.1 83.82) (end 165.1 118.11) (angle 90) (layer Edge.Cuts) (width 0.1))
  (gr_line (start 132.08 83.82) (end 165.1 83.82) (angle 90) (layer Edge.Cuts) (width 0.1))
  (gr_text "Crafting labs\nGouge v1.1" (at 153.67 100.33) (layer B.SilkS)
    (effects (font (size 1.5 1.5) (thickness 0.3)) (justify mirror))
  )
  (gr_text "Gouge v1.1" (at 155.575 109.855) (layer F.SilkS)
    (effects (font (size 1.016 1.016) (thickness 0.254)))
  )

  (segment (start 140.97 102.87) (end 140.97 95.25) (width 0.254) (layer F.Cu) (net 1))
  (segment (start 140.97 95.25) (end 137.16 95.25) (width 0.254) (layer F.Cu) (net 1) (tstamp 59F65871))
  (segment (start 134.62 91.44) (end 137.16 93.98) (width 0.254) (layer F.Cu) (net 1))
  (segment (start 137.16 101.6) (end 134.62 104.14) (width 0.254) (layer F.Cu) (net 1) (tstamp 59D4F262))
  (segment (start 137.16 93.98) (end 137.16 95.25) (width 0.254) (layer F.Cu) (net 1) (tstamp 59D4F260))
  (segment (start 137.16 95.25) (end 137.16 101.6) (width 0.254) (layer F.Cu) (net 1) (tstamp 59F65876))
  (segment (start 149.86 114.3) (end 146.685 114.3) (width 0.254) (layer F.Cu) (net 3))
  (segment (start 142.24 104.14) (end 142.24 102.87) (width 0.254) (layer F.Cu) (net 3) (tstamp 59F65E0C))
  (segment (start 140.335 106.045) (end 142.24 104.14) (width 0.254) (layer F.Cu) (net 3) (tstamp 59F65E06))
  (segment (start 135.89 106.045) (end 140.335 106.045) (width 0.254) (layer F.Cu) (net 3) (tstamp 59F65E03))
  (segment (start 134.62 107.315) (end 135.89 106.045) (width 0.254) (layer F.Cu) (net 3) (tstamp 59F65E01))
  (segment (start 134.62 116.84) (end 134.62 107.315) (width 0.254) (layer F.Cu) (net 3) (tstamp 59F65E00))
  (segment (start 144.145 116.84) (end 134.62 116.84) (width 0.254) (layer F.Cu) (net 3) (tstamp 59F65DFD))
  (segment (start 146.685 114.3) (end 144.145 116.84) (width 0.254) (layer F.Cu) (net 3) (tstamp 59F65DF9))
  (segment (start 142.24 102.87) (end 142.24 101.6) (width 0.254) (layer F.Cu) (net 3))
  (segment (start 149.225 94.615) (end 149.225 90.17) (width 0.254) (layer F.Cu) (net 3) (tstamp 59F65A50))
  (segment (start 142.24 101.6) (end 149.225 94.615) (width 0.254) (layer F.Cu) (net 3) (tstamp 59F65A4C))
  (segment (start 162.56 86.36) (end 159.385 89.535) (width 0.254) (layer F.Cu) (net 7))
  (segment (start 140.97 106.68) (end 137.16 110.49) (width 0.254) (layer F.Cu) (net 7) (tstamp 59F65EFA))
  (segment (start 147.955 106.68) (end 140.97 106.68) (width 0.254) (layer F.Cu) (net 7) (tstamp 59F65EF1))
  (segment (start 159.385 95.25) (end 147.955 106.68) (width 0.254) (layer F.Cu) (net 7) (tstamp 59F65EEE))
  (segment (start 159.385 89.535) (end 159.385 95.25) (width 0.254) (layer F.Cu) (net 7) (tstamp 59F65EED))
  (segment (start 162.56 86.36) (end 161.925 86.36) (width 0.254) (layer F.Cu) (net 7))
  (segment (start 162.56 88.9) (end 160.655 90.805) (width 0.254) (layer F.Cu) (net 8))
  (segment (start 142.24 107.95) (end 139.7 110.49) (width 0.254) (layer F.Cu) (net 8) (tstamp 59F65EE9))
  (segment (start 147.955 107.95) (end 142.24 107.95) (width 0.254) (layer F.Cu) (net 8) (tstamp 59F65EE5))
  (segment (start 160.655 95.25) (end 147.955 107.95) (width 0.254) (layer F.Cu) (net 8) (tstamp 59F65EDF))
  (segment (start 160.655 90.805) (end 160.655 95.25) (width 0.254) (layer F.Cu) (net 8) (tstamp 59F65EDC))
  (segment (start 162.56 88.9) (end 161.925 88.9) (width 0.254) (layer F.Cu) (net 8))
  (segment (start 154.305 90.17) (end 154.305 92.71) (width 0.254) (layer B.Cu) (net 9))
  (segment (start 161.29 91.44) (end 162.56 91.44) (width 0.254) (layer B.Cu) (net 9) (tstamp 59F65E96))
  (segment (start 160.02 92.71) (end 161.29 91.44) (width 0.254) (layer B.Cu) (net 9) (tstamp 59F65E93))
  (segment (start 154.305 92.71) (end 160.02 92.71) (width 0.254) (layer B.Cu) (net 9) (tstamp 59F65E91))
  (segment (start 162.56 93.98) (end 153.67 93.98) (width 0.254) (layer B.Cu) (net 10))
  (segment (start 151.765 92.075) (end 151.765 90.17) (width 0.254) (layer B.Cu) (net 10) (tstamp 59F65E9C))
  (segment (start 153.67 93.98) (end 151.765 92.075) (width 0.254) (layer B.Cu) (net 10) (tstamp 59F65E9A))
  (segment (start 139.7 114.935) (end 139.7 114.3) (width 0.254) (layer F.Cu) (net 12))
  (segment (start 139.7 114.3) (end 140.97 113.03) (width 0.254) (layer F.Cu) (net 12) (tstamp 59F65F07))
  (segment (start 146.05 113.03) (end 162.56 96.52) (width 0.254) (layer F.Cu) (net 12) (tstamp 59F65F0B))
  (segment (start 140.97 113.03) (end 146.05 113.03) (width 0.254) (layer F.Cu) (net 12) (tstamp 59F65F08))
  (segment (start 139.7 114.935) (end 140.335 114.935) (width 0.254) (layer F.Cu) (net 12))

  (zone (net 2) (net_name GND) (layer B.Cu) (tstamp 59D512D9) (hatch edge 0.508)
    (connect_pads (clearance 0.508))
    (min_thickness 0.254)
    (fill yes (arc_segments 16) (thermal_gap 0.508) (thermal_bridge_width 0.508))
    (polygon
      (pts
        (xy 165.1 118.11) (xy 132.08 118.11) (xy 132.08 83.82) (xy 165.1 83.82) (xy 165.1 118.11)
      )
    )
    (filled_polygon
      (pts
        (xy 164.415 117.425) (xy 132.765 117.425) (xy 132.765 115.869188) (xy 136.405417 115.869188) (xy 136.467071 116.1048)
        (xy 136.96748 116.280927) (xy 137.497199 116.252148) (xy 137.852929 116.1048) (xy 137.914583 115.869188) (xy 137.16 115.114605)
        (xy 136.405417 115.869188) (xy 132.765 115.869188) (xy 132.765 114.74248) (xy 135.814073 114.74248) (xy 135.842852 115.272199)
        (xy 135.9902 115.627929) (xy 136.225812 115.689583) (xy 136.980395 114.935) (xy 137.339605 114.935) (xy 138.094188 115.689583)
        (xy 138.3298 115.627929) (xy 138.428083 115.348688) (xy 138.568854 115.68938) (xy 138.943647 116.064827) (xy 139.433587 116.268268)
        (xy 139.964086 116.268731) (xy 140.45438 116.066146) (xy 140.829827 115.691353) (xy 140.89406 115.536663) (xy 140.89406 115.6335)
        (xy 140.938338 115.868817) (xy 141.07741 116.084941) (xy 141.28961 116.229931) (xy 141.5415 116.28094) (xy 142.9385 116.28094)
        (xy 143.173817 116.236662) (xy 143.389941 116.09759) (xy 143.534931 115.88539) (xy 143.58594 115.6335) (xy 143.58594 114.2365)
        (xy 143.541662 114.001183) (xy 143.40259 113.785059) (xy 143.19039 113.640069) (xy 142.9385 113.58906) (xy 141.5415 113.58906)
        (xy 141.306183 113.633338) (xy 141.090059 113.77241) (xy 140.945069 113.98461) (xy 140.89406 114.2365) (xy 140.89406 114.332884)
        (xy 140.831146 114.18062) (xy 140.456353 113.805173) (xy 139.966413 113.601732) (xy 139.435914 113.601269) (xy 138.94562 113.803854)
        (xy 138.570173 114.178647) (xy 138.436686 114.500118) (xy 138.3298 114.242071) (xy 138.094188 114.180417) (xy 137.339605 114.935)
        (xy 136.980395 114.935) (xy 136.225812 114.180417) (xy 135.9902 114.242071) (xy 135.814073 114.74248) (xy 132.765 114.74248)
        (xy 132.765 114.000812) (xy 136.405417 114.000812) (xy 137.16 114.755395) (xy 137.914583 114.000812) (xy 137.852929 113.7652)
        (xy 137.35252 113.589073) (xy 136.822801 113.617852) (xy 136.467071 113.7652) (xy 136.405417 114.000812) (xy 132.765 114.000812)
        (xy 132.765 113.284) (xy 148.34896 113.284) (xy 148.34896 115.316) (xy 148.393238 115.551317) (xy 148.53231 115.767441)
        (xy 148.74451 115.912431) (xy 148.9964 115.96344) (xy 150.7236 115.96344) (xy 150.958917 115.919162) (xy 151.175041 115.78009)
        (xy 151.320031 115.56789) (xy 151.3284 115.526561) (xy 151.34033 115.544415) (xy 151.826511 115.869271) (xy 152.4 115.983345)
        (xy 152.973489 115.869271) (xy 153.45967 115.544415) (xy 153.67 115.229634) (xy 153.88033 115.544415) (xy 154.366511 115.869271)
        (xy 154.94 115.983345) (xy 155.513489 115.869271) (xy 155.99967 115.544415) (xy 156.21 115.229634) (xy 156.42033 115.544415)
        (xy 156.906511 115.869271) (xy 157.48 115.983345) (xy 158.053489 115.869271) (xy 158.53967 115.544415) (xy 158.746461 115.234931)
        (xy 159.117964 115.650732) (xy 159.645209 115.904709) (xy 159.660974 115.907358) (xy 159.893 115.786217) (xy 159.893 114.427)
        (xy 160.147 114.427) (xy 160.147 115.786217) (xy 160.379026 115.907358) (xy 160.394791 115.904709) (xy 160.922036 115.650732)
        (xy 161.311954 115.21432) (xy 161.505184 114.661913) (xy 161.360924 114.427) (xy 160.147 114.427) (xy 159.893 114.427)
        (xy 159.873 114.427) (xy 159.873 114.173) (xy 159.893 114.173) (xy 159.893 112.813783) (xy 160.147 112.813783)
        (xy 160.147 114.173) (xy 161.360924 114.173) (xy 161.505184 113.938087) (xy 161.311954 113.38568) (xy 160.922036 112.949268)
        (xy 160.394791 112.695291) (xy 160.379026 112.692642) (xy 160.147 112.813783) (xy 159.893 112.813783) (xy 159.660974 112.692642)
        (xy 159.645209 112.695291) (xy 159.117964 112.949268) (xy 158.746461 113.365069) (xy 158.53967 113.055585) (xy 158.053489 112.730729)
        (xy 157.48 112.616655) (xy 156.906511 112.730729) (xy 156.42033 113.055585) (xy 156.21 113.370366) (xy 155.99967 113.055585)
        (xy 155.513489 112.730729) (xy 154.94 112.616655) (xy 154.366511 112.730729) (xy 153.88033 113.055585) (xy 153.67 113.370366)
        (xy 153.45967 113.055585) (xy 152.973489 112.730729) (xy 152.4 112.616655) (xy 151.826511 112.730729) (xy 151.34033 113.055585)
        (xy 151.330757 113.069913) (xy 151.326762 113.048683) (xy 151.18769 112.832559) (xy 150.97549 112.687569) (xy 150.7236 112.63656)
        (xy 148.9964 112.63656) (xy 148.761083 112.680838) (xy 148.544959 112.81991) (xy 148.399969 113.03211) (xy 148.34896 113.284)
        (xy 132.765 113.284) (xy 132.765 109.474) (xy 135.64896 109.474) (xy 135.64896 111.506) (xy 135.693238 111.741317)
        (xy 135.83231 111.957441) (xy 136.04451 112.102431) (xy 136.2964 112.15344) (xy 138.0236 112.15344) (xy 138.258917 112.109162)
        (xy 138.475041 111.97009) (xy 138.620031 111.75789) (xy 138.6284 111.716561) (xy 138.64033 111.734415) (xy 139.126511 112.059271)
        (xy 139.7 112.173345) (xy 140.273489 112.059271) (xy 140.75967 111.734415) (xy 140.966461 111.424931) (xy 141.337964 111.840732)
        (xy 141.865209 112.094709) (xy 141.880974 112.097358) (xy 142.113 111.976217) (xy 142.113 110.617) (xy 142.367 110.617)
        (xy 142.367 111.976217) (xy 142.599026 112.097358) (xy 142.614791 112.094709) (xy 143.142036 111.840732) (xy 143.531954 111.40432)
        (xy 143.725184 110.851913) (xy 143.580924 110.617) (xy 142.367 110.617) (xy 142.113 110.617) (xy 142.093 110.617)
        (xy 142.093 110.363) (xy 142.113 110.363) (xy 142.113 109.003783) (xy 142.367 109.003783) (xy 142.367 110.363)
        (xy 143.580924 110.363) (xy 143.725184 110.128087) (xy 143.531954 109.57568) (xy 143.142036 109.139268) (xy 142.614791 108.885291)
        (xy 142.599026 108.882642) (xy 142.367 109.003783) (xy 142.113 109.003783) (xy 141.880974 108.882642) (xy 141.865209 108.885291)
        (xy 141.337964 109.139268) (xy 140.966461 109.555069) (xy 140.75967 109.245585) (xy 140.273489 108.920729) (xy 139.7 108.806655)
        (xy 139.126511 108.920729) (xy 138.64033 109.245585) (xy 138.630757 109.259913) (xy 138.626762 109.238683) (xy 138.48769 109.022559)
        (xy 138.27549 108.877569) (xy 138.0236 108.82656) (xy 136.2964 108.82656) (xy 136.061083 108.870838) (xy 135.844959 109.00991)
        (xy 135.699969 109.22211) (xy 135.64896 109.474) (xy 132.765 109.474) (xy 132.765 86.636661) (xy 133.222758 86.636661)
        (xy 133.43499 87.150303) (xy 133.82763 87.543629) (xy 134.035512 87.629949) (xy 133.829697 87.71499) (xy 133.436371 88.10763)
        (xy 133.223243 88.6209) (xy 133.222758 89.176661) (xy 133.43499 89.690303) (xy 133.82763 90.083629) (xy 134.035512 90.169949)
        (xy 133.829697 90.25499) (xy 133.436371 90.64763) (xy 133.223243 91.1609) (xy 133.222758 91.716661) (xy 133.43499 92.230303)
        (xy 133.82763 92.623629) (xy 134.035512 92.709949) (xy 133.829697 92.79499) (xy 133.436371 93.18763) (xy 133.223243 93.7009)
        (xy 133.222758 94.256661) (xy 133.43499 94.770303) (xy 133.82763 95.163629) (xy 134.035512 95.249949) (xy 133.829697 95.33499)
        (xy 133.436371 95.72763) (xy 133.223243 96.2409) (xy 133.222758 96.796661) (xy 133.43499 97.310303) (xy 133.82763 97.703629)
        (xy 134.035512 97.789949) (xy 133.829697 97.87499) (xy 133.436371 98.26763) (xy 133.223243 98.7809) (xy 133.222758 99.336661)
        (xy 133.43499 99.850303) (xy 133.82763 100.243629) (xy 134.035512 100.329949) (xy 133.829697 100.41499) (xy 133.436371 100.80763)
        (xy 133.223243 101.3209) (xy 133.222758 101.876661) (xy 133.43499 102.390303) (xy 133.82763 102.783629) (xy 134.035512 102.869949)
        (xy 133.829697 102.95499) (xy 133.436371 103.34763) (xy 133.223243 103.8609) (xy 133.222758 104.416661) (xy 133.43499 104.930303)
        (xy 133.82763 105.323629) (xy 134.3409 105.536757) (xy 134.896661 105.537242) (xy 135.410303 105.32501) (xy 135.615457 105.120213)
        (xy 161.759392 105.120213) (xy 161.828857 105.362397) (xy 162.352302 105.549144) (xy 162.907368 105.521362) (xy 163.291143 105.362397)
        (xy 163.360608 105.120213) (xy 162.56 104.319605) (xy 161.759392 105.120213) (xy 135.615457 105.120213) (xy 135.803629 104.93237)
        (xy 136.016757 104.4191) (xy 136.017242 103.863339) (xy 135.80501 103.349697) (xy 135.41237 102.956371) (xy 135.204488 102.870051)
        (xy 135.410303 102.78501) (xy 135.653872 102.541865) (xy 139.88542 102.541865) (xy 139.88542 103.198135) (xy 139.967979 103.613186)
        (xy 140.203086 103.965049) (xy 140.554949 104.200156) (xy 140.97 104.282715) (xy 141.385051 104.200156) (xy 141.605 104.053191)
        (xy 141.824949 104.200156) (xy 142.24 104.282715) (xy 142.655051 104.200156) (xy 142.879238 104.050359) (xy 143.216065 104.214981)
        (xy 143.383 104.088068) (xy 143.383 102.997) (xy 143.637 102.997) (xy 143.637 104.088068) (xy 143.803935 104.214981)
        (xy 144.187111 104.027706) (xy 144.268388 103.932302) (xy 161.150856 103.932302) (xy 161.178638 104.487368) (xy 161.337603 104.871143)
        (xy 161.579787 104.940608) (xy 162.380395 104.14) (xy 162.739605 104.14) (xy 163.540213 104.940608) (xy 163.782397 104.871143)
        (xy 163.969144 104.347698) (xy 163.941362 103.792632) (xy 163.782397 103.408857) (xy 163.540213 103.339392) (xy 162.739605 104.14)
        (xy 162.380395 104.14) (xy 161.579787 103.339392) (xy 161.337603 103.408857) (xy 161.150856 103.932302) (xy 144.268388 103.932302)
        (xy 144.46342 103.703373) (xy 144.59458 103.29799) (xy 144.59458 102.997) (xy 143.637 102.997) (xy 143.383 102.997)
        (xy 143.363 102.997) (xy 143.363 102.743) (xy 143.383 102.743) (xy 143.383 101.651932) (xy 143.637 101.651932)
        (xy 143.637 102.743) (xy 144.59458 102.743) (xy 144.59458 102.44201) (xy 144.46342 102.036627) (xy 144.187111 101.712294)
        (xy 143.803935 101.525019) (xy 143.637 101.651932) (xy 143.383 101.651932) (xy 143.216065 101.525019) (xy 142.879238 101.689641)
        (xy 142.655051 101.539844) (xy 142.24 101.457285) (xy 141.824949 101.539844) (xy 141.605 101.686809) (xy 141.385051 101.539844)
        (xy 140.97 101.457285) (xy 140.554949 101.539844) (xy 140.203086 101.774951) (xy 139.967979 102.126814) (xy 139.88542 102.541865)
        (xy 135.653872 102.541865) (xy 135.803629 102.39237) (xy 136.016757 101.8791) (xy 136.017242 101.323339) (xy 135.80501 100.809697)
        (xy 135.41237 100.416371) (xy 135.204488 100.330051) (xy 135.410303 100.24501) (xy 135.803629 99.85237) (xy 136.016757 99.3391)
        (xy 136.017242 98.783339) (xy 135.80501 98.269697) (xy 135.41237 97.876371) (xy 135.204488 97.790051) (xy 135.410303 97.70501)
        (xy 135.803629 97.31237) (xy 136.016757 96.7991) (xy 136.017242 96.243339) (xy 135.80501 95.729697) (xy 135.41237 95.336371)
        (xy 135.204488 95.250051) (xy 135.410303 95.16501) (xy 135.803629 94.77237) (xy 135.948077 94.4245) (xy 139.49706 94.4245)
        (xy 139.49706 96.0755) (xy 139.541338 96.310817) (xy 139.68041 96.526941) (xy 139.89261 96.671931) (xy 140.1445 96.72294)
        (xy 141.7955 96.72294) (xy 142.030817 96.678662) (xy 142.246941 96.53959) (xy 142.391931 96.32739) (xy 142.402294 96.276215)
        (xy 142.66339 96.276215) (xy 142.740656 96.524976) (xy 143.287131 96.72234) (xy 143.867535 96.695553) (xy 144.279344 96.524976)
        (xy 144.35661 96.276215) (xy 143.51 95.429605) (xy 142.66339 96.276215) (xy 142.402294 96.276215) (xy 142.441335 96.083425)
        (xy 142.483785 96.09661) (xy 143.330395 95.25) (xy 143.689605 95.25) (xy 144.536215 96.09661) (xy 144.784976 96.019344)
        (xy 144.98234 95.472869) (xy 144.955553 94.892465) (xy 144.784976 94.480656) (xy 144.536215 94.40339) (xy 143.689605 95.25)
        (xy 143.330395 95.25) (xy 142.483785 94.40339) (xy 142.441443 94.416542) (xy 142.405173 94.223785) (xy 142.66339 94.223785)
        (xy 143.51 95.070395) (xy 144.35661 94.223785) (xy 144.279344 93.975024) (xy 143.732869 93.77766) (xy 143.152465 93.804447)
        (xy 142.740656 93.975024) (xy 142.66339 94.223785) (xy 142.405173 94.223785) (xy 142.398662 94.189183) (xy 142.25959 93.973059)
        (xy 142.04739 93.828069) (xy 141.7955 93.77706) (xy 140.1445 93.77706) (xy 139.909183 93.821338) (xy 139.693059 93.96041)
        (xy 139.548069 94.17261) (xy 139.49706 94.4245) (xy 135.948077 94.4245) (xy 136.016757 94.2591) (xy 136.017242 93.703339)
        (xy 135.80501 93.189697) (xy 135.41237 92.796371) (xy 135.204488 92.710051) (xy 135.410303 92.62501) (xy 135.803629 92.23237)
        (xy 136.016757 91.7191) (xy 136.017242 91.163339) (xy 135.80501 90.649697) (xy 135.41237 90.256371) (xy 135.204488 90.170051)
        (xy 135.410303 90.08501) (xy 135.510232 89.985255) (xy 147.7264 89.985255) (xy 147.7264 90.354745) (xy 147.840474 90.928234)
        (xy 148.16533 91.414415) (xy 148.651511 91.739271) (xy 149.225 91.853345) (xy 149.798489 91.739271) (xy 150.28467 91.414415)
        (xy 150.495 91.099634) (xy 150.70533 91.414415) (xy 151.003 91.613312) (xy 151.003 92.075) (xy 151.061004 92.366605)
        (xy 151.09561 92.418396) (xy 151.226185 92.613815) (xy 153.131185 94.518815) (xy 153.378395 94.683996) (xy 153.67 94.742)
        (xy 161.363295 94.742) (xy 161.37499 94.770303) (xy 161.76763 95.163629) (xy 161.975512 95.249949) (xy 161.769697 95.33499)
        (xy 161.376371 95.72763) (xy 161.163243 96.2409) (xy 161.162758 96.796661) (xy 161.37499 97.310303) (xy 161.76763 97.703629)
        (xy 161.975512 97.789949) (xy 161.769697 97.87499) (xy 161.376371 98.26763) (xy 161.163243 98.7809) (xy 161.162758 99.336661)
        (xy 161.37499 99.850303) (xy 161.76763 100.243629) (xy 161.975512 100.329949) (xy 161.769697 100.41499) (xy 161.376371 100.80763)
        (xy 161.163243 101.3209) (xy 161.162758 101.876661) (xy 161.37499 102.390303) (xy 161.76763 102.783629) (xy 161.959727 102.863395)
        (xy 161.828857 102.917603) (xy 161.759392 103.159787) (xy 162.56 103.960395) (xy 163.360608 103.159787) (xy 163.291143 102.917603)
        (xy 163.150682 102.867491) (xy 163.350303 102.78501) (xy 163.743629 102.39237) (xy 163.956757 101.8791) (xy 163.957242 101.323339)
        (xy 163.74501 100.809697) (xy 163.35237 100.416371) (xy 163.144488 100.330051) (xy 163.350303 100.24501) (xy 163.743629 99.85237)
        (xy 163.956757 99.3391) (xy 163.957242 98.783339) (xy 163.74501 98.269697) (xy 163.35237 97.876371) (xy 163.144488 97.790051)
        (xy 163.350303 97.70501) (xy 163.743629 97.31237) (xy 163.956757 96.7991) (xy 163.957242 96.243339) (xy 163.74501 95.729697)
        (xy 163.35237 95.336371) (xy 163.144488 95.250051) (xy 163.350303 95.16501) (xy 163.743629 94.77237) (xy 163.956757 94.2591)
        (xy 163.957242 93.703339) (xy 163.74501 93.189697) (xy 163.35237 92.796371) (xy 163.144488 92.710051) (xy 163.350303 92.62501)
        (xy 163.743629 92.23237) (xy 163.956757 91.7191) (xy 163.957242 91.163339) (xy 163.74501 90.649697) (xy 163.35237 90.256371)
        (xy 163.144488 90.170051) (xy 163.350303 90.08501) (xy 163.743629 89.69237) (xy 163.956757 89.1791) (xy 163.957242 88.623339)
        (xy 163.74501 88.109697) (xy 163.35237 87.716371) (xy 163.144488 87.630051) (xy 163.350303 87.54501) (xy 163.743629 87.15237)
        (xy 163.956757 86.6391) (xy 163.957242 86.083339) (xy 163.74501 85.569697) (xy 163.35237 85.176371) (xy 162.8391 84.963243)
        (xy 162.283339 84.962758) (xy 161.769697 85.17499) (xy 161.376371 85.56763) (xy 161.163243 86.0809) (xy 161.162758 86.636661)
        (xy 161.37499 87.150303) (xy 161.76763 87.543629) (xy 161.975512 87.629949) (xy 161.769697 87.71499) (xy 161.376371 88.10763)
        (xy 161.163243 88.6209) (xy 161.162758 89.176661) (xy 161.37499 89.690303) (xy 161.76763 90.083629) (xy 161.975512 90.169949)
        (xy 161.769697 90.25499) (xy 161.376371 90.64763) (xy 161.36376 90.678) (xy 161.29 90.678) (xy 160.998395 90.736004)
        (xy 160.751184 90.901185) (xy 159.70437 91.948) (xy 155.067 91.948) (xy 155.067 91.613312) (xy 155.36467 91.414415)
        (xy 155.3795 91.39222) (xy 155.443073 91.545698) (xy 155.621701 91.724327) (xy 155.85509 91.821) (xy 156.55925 91.821)
        (xy 156.718 91.66225) (xy 156.718 90.297) (xy 156.972 90.297) (xy 156.972 91.66225) (xy 157.13075 91.821)
        (xy 157.83491 91.821) (xy 158.068299 91.724327) (xy 158.246927 91.545698) (xy 158.3436 91.312309) (xy 158.3436 90.45575)
        (xy 158.18485 90.297) (xy 156.972 90.297) (xy 156.718 90.297) (xy 156.698 90.297) (xy 156.698 90.043)
        (xy 156.718 90.043) (xy 156.718 88.67775) (xy 156.972 88.67775) (xy 156.972 90.043) (xy 158.18485 90.043)
        (xy 158.3436 89.88425) (xy 158.3436 89.027691) (xy 158.246927 88.794302) (xy 158.068299 88.615673) (xy 157.83491 88.519)
        (xy 157.13075 88.519) (xy 156.972 88.67775) (xy 156.718 88.67775) (xy 156.55925 88.519) (xy 155.85509 88.519)
        (xy 155.621701 88.615673) (xy 155.443073 88.794302) (xy 155.3795 88.94778) (xy 155.36467 88.925585) (xy 154.878489 88.600729)
        (xy 154.305 88.486655) (xy 153.731511 88.600729) (xy 153.24533 88.925585) (xy 153.035 89.240366) (xy 152.82467 88.925585)
        (xy 152.338489 88.600729) (xy 151.765 88.486655) (xy 151.191511 88.600729) (xy 150.70533 88.925585) (xy 150.495 89.240366)
        (xy 150.28467 88.925585) (xy 149.798489 88.600729) (xy 149.225 88.486655) (xy 148.651511 88.600729) (xy 148.16533 88.925585)
        (xy 147.840474 89.411766) (xy 147.7264 89.985255) (xy 135.510232 89.985255) (xy 135.803629 89.69237) (xy 136.016757 89.1791)
        (xy 136.017242 88.623339) (xy 135.80501 88.109697) (xy 135.41237 87.716371) (xy 135.204488 87.630051) (xy 135.410303 87.54501)
        (xy 135.803629 87.15237) (xy 136.016757 86.6391) (xy 136.017242 86.083339) (xy 135.80501 85.569697) (xy 135.41237 85.176371)
        (xy 134.8991 84.963243) (xy 134.343339 84.962758) (xy 133.829697 85.17499) (xy 133.436371 85.56763) (xy 133.223243 86.0809)
        (xy 133.222758 86.636661) (xy 132.765 86.636661) (xy 132.765 84.505) (xy 164.415 84.505)
      )
    )
  )
)
